Gov 50 Final Project
…
lacrimedata_sc

# A tibble: 21,026 × 5
    ...1 AREA  `AREA NAME` `Crm Cd` crimedesc                         
   <dbl> <chr> <chr>          <dbl> <chr>                             
 1     6 01    Central          121 RAPE, FORCIBLE                    
 2    30 01    Central          121 RAPE, FORCIBLE                    
 3    61 01    Central          860 BATTERY WITH SEXUAL CONTACT       
 4    71 08    West LA          956 LETTERS, LEWD  -  TELEPHONE CALLS…
 5    95 01    Central          860 BATTERY WITH SEXUAL CONTACT       
 6   110 13    Newton           121 RAPE, FORCIBLE                    
 7   170 08    West LA          956 LETTERS, LEWD  -  TELEPHONE CALLS…
 8   201 09    Van Nuys         810 SEX,UNLAWFUL(INC MUTUAL CONSENT, …
 9   202 10    West Valley      956 LETTERS, LEWD  -  TELEPHONE CALLS…
10   221 18    Southeast        812 CRM AGNST CHLD (13 OR UNDER) (14-…
# ℹ 21,016 more rows
…
